\relax 
\catcode `"\active 
\select@language{ngerman}
\@writefile{toc}{\select@language{ngerman}}
\@writefile{lof}{\select@language{ngerman}}
\@writefile{lot}{\select@language{ngerman}}
\@writefile{toc}{\contentsline {section}{\numberline {1}Technischer Aufbau}{3}}
\@writefile{lof}{\contentsline {figure}{\numberline {1}{\ignorespaces Display Anschluss}}{3}}
\newlabel{img:display}{{1}{3}}
\@writefile{lof}{\contentsline {figure}{\numberline {2}{\ignorespaces Arduino Anschluss}}{4}}
\newlabel{img:arduino}{{2}{4}}
\@writefile{lof}{\contentsline {figure}{\numberline {3}{\ignorespaces Gesamter Aufbau}}{5}}
\newlabel{img:gesamt}{{3}{5}}
\@writefile{toc}{\contentsline {section}{\numberline {2}Code}{5}}
\@writefile{toc}{\contentsline {section}{\numberline {3}HTTP Aufrufe}{8}}
